Lab 3 - Data tidying and joining
…
arrange the data frame in decreasing order of inf_ratio, and

select the variables country and inf_ratio to display as the result of the pipeline.

Do not save this new variable in inf_ratio, only calculate and display it so you can answer the following question based on the output of the pipeline.

Which country’s inflation change is the largest over this time period? Did inflation increase of decrease between 1993 and 2021 in this country?

country_inflation |>
  mutate(inf_ratio = `2021` / `1993`) |>
  arrange(desc(inf_ratio)) |>
  select(country, inf_ratio)

# A tibble: 44 × 2
   country       inf_ratio
   <chr>             <dbl>
 1 New Zealand        3.06
 2 Canada             1.82
 3 Australia          1.63
 4 Ireland            1.60
 5 United States      1.59
 6 Norway             1.52
 7 Denmark            1.47
 8 Iceland            1.10
 9 Netherlands        1.04
10 Finland            1.00
# ℹ 34 more rows
…
# A tibble: 2 × 3
  country  year annual_inflation
  <chr>   <dbl>            <dbl>
1 Ireland  2009            -4.48
2 Brazil   1994          2076.  

The highest inflation rate observed between 1993 and 2021 occurred in Brazil in 1994, with an inflation rate of 2075.89%. Otherwise, the lowest inflation rate between 1993 and 2021 occured in Ireland in 2009, with negative inflation, -4.478%.

Question 6

Create a vector called countries_of_interest which contains the names of up tp five countries you want to visualize the inflation rates for over the years. For example, if these countries are Türkiye and United States, you can express this as follows:

distinct(country_inflation)

# A tibble: 44 × 30
   country `1993` `1994` `1995` `1996` `1997` `1998` `1999` `2000` `2001` `2002`
   <chr>    <dbl>  <dbl>  <dbl>  <dbl>  <dbl>  <dbl>  <dbl>  <dbl>  <dbl>  <dbl>
 1 Austra…   1.75  1.97   4.63   2.62   0.225  0.860  1.48    4.46   4.41   2.98
 2 Austria   3.63  2.95   2.24   1.86   1.31   0.922  0.569   2.34   2.65   1.81
 3 Belgium   2.75  2.38   1.47   2.08   1.63   0.949  1.12    2.54   2.47   1.65
 4 Canada    1.87  0.166  2.15   1.57   1.62   0.996  1.73    2.72   2.53   2.26
 5 Czech …  20.8  10.0    8.99   8.76   8.60  10.7    2.14    3.78   4.66   1.90
 6 Denmark   1.26  1.99   2.08   2.13   2.18   1.85   2.50    2.90   2.34   2.42
 7 Finland   2.19  1.09   0.791  0.629  1.19   1.40   1.16    3.04   2.58   1.57
 8 France    2.10  1.66   1.80   1.98   1.20   0.651  0.537   1.68   1.63   1.92
 9 Germany   4.47  2.69   1.71   1.45   1.94   0.911  0.585   1.44   1.98   1.42
10 Greece   14.4  10.9    8.93   8.19   5.54   4.77   2.64    3.15   3.37   3.63
# ℹ 34 more rows
# ℹ 19 more variables: `2003` <dbl>, `2004` <dbl>, `2005` <dbl>, `2006` <dbl>,
#   `2007` <dbl>, `2008` <dbl>, `2009` <dbl>, `2010` <dbl>, `2011` <dbl>,
#   `2012` <dbl>, `2013` <dbl>, `2014` <dbl>, `2015` <dbl>, `2016` <dbl>,
#   `2017` <dbl>, `2018` <dbl>, `2019` <dbl>, `2020` <dbl>, `2021` <dbl>
…
